Plastic Debris
…
Im going to replace the column for time as a date data type, renaming it as simply Time:

data$Time <- data$Timestamp %>% 
  parse_datetime(format = "%Y%m%d%H%M%S")
data$Timestamp <- NULL

Wrangling

A quick look at the data:

data

## # A tibble: 363,368 x 15
##    ListID ListName ItemID ItemName LogID Latitude Longitude Altitude
##     <int> <fct>     <int> <fct>    <int>    <dbl>     <dbl>    <dbl>
##  1     22 Marine ~    183 Lumber/~   322     28.0     -82.8     -8.8
##  2     22 Marine ~    183 Lumber/~   323     28.0     -82.8     -8.7
##  3     22 Marine ~    187 Cigaret~   324     28.0     -82.8      0.2
##  4     22 Marine ~    181 Bottle ~   325     28.0     -82.8      0.4
##  5     22 Marine ~    181 Bottle ~   326     28.0     -82.8      0.4
##  6     22 Marine ~    181 Bottle ~   327     28.0     -82.8      1.4
##  7     22 Marine ~    174 Aerosol~   328     28.0     -82.8      1.9
##  8     22 Marine ~    207 Straws     329     28.0     -82.8      2.6
##  9     22 Marine ~    185 Disposa~   330     28.0     -82.8      2  
## 10     22 Marine ~    202 Plastic~   331     28.0     -82.8      3  
## # ... with 363,358 more rows, and 7 more variables: Quantity <dbl>, `Error
## #   Radius` <dbl>, Location <fct>, Description <chr>, `Material ID` <int>,
## #   `Material Description` <fct>, Time <dttm>
…
## # A tibble: 2 x 2
##   `Material Description` Quantity
##   <fct>                     <dbl>
## 1 PLASTIC                    2114
## 2 RUBBER                      155

It seems that most rubber gloves are classified as plastic rather than rubber. Im going to search for any extra descriptions given in the observations to try and gain some insight.

data %>% select(`Material Description`, ItemName, Description) %>%
  filter(ItemName == "Rubber Gloves", !is.na(Description))

## # A tibble: 33 x 3
##    `Material Descriptio~ ItemName     Description                          
##    <fct>                 <fct>        <chr>                                
##  1 PLASTIC               Rubber Glov~ Found on wassaw island Oct. 21 with ~
##  2 PLASTIC               Rubber Glov~ undefined                            
##  3 PLASTIC               Rubber Glov~ undefined                            
##  4 PLASTIC               Rubber Glov~ thermal                              
##  5 PLASTIC               Rubber Glov~ Near water                           
##  6 PLASTIC               Rubber Glov~ Taste of Omaha Cleanup               
##  7 PLASTIC               Rubber Glov~ Taste of Omaha Cleanup               
##  8 PLASTIC               Rubber Glov~ 2 diff kinds                         
##  9 PLASTIC               Rubber Glov~ undefined                            
## 10 PLASTIC               Rubber Glov~ Latex                                
## # ... with 23 more rows
…
