Plastic Debris
…
Logged marine debris is available for download here. Im importing data from 2010 till Feb 19th 2020. There doesnt seem to be data before 2010. The data is reported marine debris.

data <- list.files(path = "data/", full.names = TRUE) %>% 
  lapply(FUN = read_csv, col_types = "ififidddddcfcif") %>% 
  reduce(rbind)

A quick look at the data:

data

## # A tibble: 363,368 x 15
##    ListID ListName ItemID ItemName LogID Latitude Longitude Altitude Quantity
##     <int> <fct>     <int> <fct>    <int>    <dbl>     <dbl>    <dbl>    <dbl>
##  1     22 Marine     183 Lumber/   322     28.0     -82.8     -8.8        1
##  2     22 Marine     183 Lumber/   323     28.0     -82.8     -8.7        1
##  3     22 Marine     187 Cigaret   324     28.0     -82.8      0.2        2
##  4     22 Marine     181 Bottle    325     28.0     -82.8      0.4        1
##  5     22 Marine     181 Bottle    326     28.0     -82.8      0.4        1
##  6     22 Marine     181 Bottle    327     28.0     -82.8      1.4        1
##  7     22 Marine     174 Aerosol   328     28.0     -82.8      1.9        1
##  8     22 Marine     207 Straws     329     28.0     -82.8      2.6        1
##  9     22 Marine     185 Disposa   330     28.0     -82.8      2          1
## 10     22 Marine     202 Plastic   331     28.0     -82.8      3          1
## #  with 363,358 more rows, and 6 more variables: `Error Radius` <dbl>,
## #   Timestamp <chr>, Location <fct>, Description <chr>, `Material ID` <int>,
## #   `Material Description` <fct>
…
